<?xml version="1.0" encoding="UTF-8"?>
<svg width="56px" height="56px" viewBox="0 0 56 56" version="1.1" xmlns="http://www.w3.org/2000/svg" xmlns:xlink="http://www.w3.org/1999/xlink">
    <!-- Generator: Sketch 46.1 (44463) - http://www.bohemiancoding.com/sketch -->
    <title>tick</title>
    <desc>Created with Sketch.</desc>
    <defs></defs>
    <g id="Symbols" stroke="none" stroke-width="1" fill="none" fill-rule="evenodd">
        <g id="referral-sent" transform="translate(-113.000000, -36.000000)">
            <g id="Group-3">
                <g id="tick" transform="translate(113.000000, 36.000000)">
                    <path d="M55.6884766,27.8442383 C55.6884766,43.223168 43.223168,55.6884766 27.8442383,55.6884766 C12.4653086,55.6884766 0,43.223168 0,27.8442383 C0,12.4653086 12.4653086,0 27.8442383,0 C43.223168,0 55.6884766,12.4653086 55.6884766,27.8442383" id="Fill-1" fill="#FFFFFF"></path>
                    <polygon id="Stroke-3" fill="#78D44F" fill-rule="nonzero" points="16.8197878 26.9264063 15.4055743 28.3406199 25.0317475 37.9667931 42.6369656 20.3615749 41.222752 18.9473614 25.0317475 35.1383659"></polygon>
                </g>
            </g>
        </g>
    </g>
</svg>