<?xml version="1.0" encoding="UTF-8"?>
<svg width="22px" height="22px" viewBox="0 0 22 22" version="1.1" xmlns="http://www.w3.org/2000/svg" xmlns:xlink="http://www.w3.org/1999/xlink">
    <!-- Generator: Sketch 46.1 (44463) - http://www.bohemiancoding.com/sketch -->
    <title>icon/person grey</title>
    <desc>Created with Sketch.</desc>
    <defs></defs>
    <g id="Symbols" stroke="none" stroke-width="1" fill="none" fill-rule="evenodd">
        <g id="icon/person-grey">
            <g id="Group">
                <rect id="Rectangle-11" x="0" y="0" width="22" height="22"></rect>
            </g>
            <g id="Page-1" transform="translate(4.000000, 3.000000)" fill="#DEDFE3">
                <path d="M6.85339286,8.0769125 C3.00160714,8.1364125 0.000535714286,11.452475 0.000535714286,15.273225 L0.000535714286,15.770475 C0.000535714286,16.3081 0.439821429,16.743725 0.981964286,16.743725 L12.9466071,16.743725 C13.48875,16.743725 13.9291071,16.3081 13.9291071,15.770475 L13.9291071,15.081975 C13.9291071,11.1921625 10.7908929,8.01635 6.85339286,8.0769125 M6.79232143,7.2587875 C8.81303571,7.2587875 10.45125,5.6331625 10.45125,3.6292875 C10.45125,1.62435 8.81303571,-0.0002125 6.79232143,-0.0002125 C4.77053571,-0.0002125 3.13232143,1.62435 3.13232143,3.6292875 C3.13232143,5.6331625 4.77053571,7.2587875 6.79232143,7.2587875" id="Fill-1"></path>
            </g>
        </g>
    </g>
</svg>