<?xml version="1.0" encoding="UTF-8"?>
<svg width="51px" height="52px" viewBox="0 0 51 52" version="1.1" xmlns="http://www.w3.org/2000/svg" xmlns:xlink="http://www.w3.org/1999/xlink">
    <!-- Generator: Sketch 46.1 (44463) - http://www.bohemiancoding.com/sketch -->
    <title>icon/gender/none</title>
    <desc>Created with Sketch.</desc>
    <defs>
        <polygon id="path-1" points="30.4906 17 0.4706 17 0.4706 0.3704 30.4906 0.3704"></polygon>
    </defs>
    <g id="Symbols" stroke="none" stroke-width="1" fill="none" fill-rule="evenodd">
        <g id="icon/gender/none">
            <g id="Page-1">
                <g id="Group-3" transform="translate(0.000000, 0.921300)" fill="#F5F5F5">
                    <path d="M50.8333,25.4954 C50.8333,39.5324 39.4543,50.9124 25.4163,50.9124 C11.3793,50.9124 0.0003,39.5324 0.0003,25.4954 C0.0003,11.4584 11.3793,0.0784 25.4163,0.0784 C39.4543,0.0784 50.8333,11.4584 50.8333,25.4954" id="Fill-1"></path>
                </g>
                <g id="Group-6" transform="translate(10.000000, 34.921300)">
                    <mask id="mask-2" fill="white">
                        <use xlink:href="#path-1"></use>
                    </mask>
                    <g id="Clip-5"></g>
                    <path d="M20.6926,0.3704 L10.2496,0.3704 C10.2496,6.3704 6.4066,11.5554 0.4706,12.2244 C4.6666,15.2804 9.8296,17.0004 15.4166,17.0004 C21.0606,17.0004 26.2736,15.2894 30.4906,12.1774 C24.5416,11.5694 20.6926,6.3704 20.6926,0.3704" id="Fill-4" fill="#D7D8D7" mask="url(#mask-2)"></path>
                </g>
                <path d="M25.4167,39.3307 L25.4167,39.3307 C19.4337,39.3307 14.5837,34.4807 14.5837,28.4977 L14.5837,23.0117 C14.5837,17.0287 19.4337,12.1777 25.4167,12.1777 L25.4167,12.1777 C31.3997,12.1777 36.2497,17.0287 36.2497,23.0117 L36.2497,28.4977 C36.2497,34.4807 31.3997,39.3307 25.4167,39.3307" id="Fill-7" fill="#E3E3E3"></path>
            </g>
        </g>
    </g>
</svg>