<?xml version="1.0" encoding="UTF-8"?>
<svg width="23px" height="23px" viewBox="0 0 23 23" version="1.1" xmlns="http://www.w3.org/2000/svg" xmlns:xlink="http://www.w3.org/1999/xlink">
    <!-- Generator: Sketch 46.1 (44463) - http://www.bohemiancoding.com/sketch -->
    <title>clients-blue</title>
    <desc>Created with Sketch.</desc>
    <defs></defs>
    <g id="Symbols" stroke="none" stroke-width="1" fill="none" fill-rule="evenodd">
        <g id="clients-selected" transform="translate(-39.000000, -8.000000)" fill-rule="nonzero" fill="#05BDFF">
            <g id="clients-blue" transform="translate(39.000000, 8.000000)">
                <path d="M11.0658,4.3248 C11.0658,2.48857676 9.57729207,0.9998 7.7408,0.9998 C5.90494237,0.9998 4.4158,2.48894237 4.4158,4.3248 C4.4158,6.16065763 5.90494237,7.6498 7.7408,7.6498 C9.57729207,7.6498 11.0658,6.16102324 11.0658,4.3248 Z M12.0658,4.3248 C12.0658,6.71326757 10.1296172,8.6498 7.7408,8.6498 C5.35265763,8.6498 3.4158,6.71294237 3.4158,4.3248 C3.4158,1.93665763 5.35265763,-0.0002 7.7408,-0.0002 C10.1296172,-0.0002 12.0658,1.93633243 12.0658,4.3248 Z" id="Stroke-1"></path>
                <path d="M18.158,7.4594 C18.158,6.17454237 17.1158576,5.1324 15.831,5.1324 C14.5452697,5.1324 13.503,6.17441511 13.503,7.4594 C13.503,8.74438489 14.5452697,9.7864 15.831,9.7864 C17.1158576,9.7864 18.158,8.74425763 18.158,7.4594 Z M19.158,7.4594 C19.158,9.29654237 17.6681424,10.7864 15.831,10.7864 C13.9930396,10.7864 12.503,9.29672434 12.503,7.4594 C12.503,5.62207566 13.9930396,4.1324 15.831,4.1324 C17.6681424,4.1324 19.158,5.62225763 19.158,7.4594 Z" id="Stroke-3"></path>
                <path d="M1,22.2479 L1,17.5149 C1,13.7301871 4.09899765,10.6309 7.883,10.6309 C11.6678576,10.6309 14.767,13.7300424 14.767,17.5149 L14.767,22.2479 C14.767,22.5240424 14.9908576,22.7479 15.267,22.7479 C15.5431424,22.7479 15.767,22.5240424 15.767,22.2479 L15.767,17.5149 C15.767,13.1777576 12.2201424,9.6309 7.883,9.6309 C3.54669199,9.6309 0,13.1779233 0,17.5149 L0,22.2479 C0,22.5240424 0.223857625,22.7479 0.5,22.7479 C0.776142375,22.7479 1,22.5240424 1,22.2479 Z" id="Stroke-5"></path>
                <path d="M15.8306,12.7107 C18.8328154,12.7107 21.2916,15.1692001 21.2916,18.1717 L21.2916,22.2477 C21.2916,22.5238424 21.5154576,22.7477 21.7916,22.7477 C22.0677424,22.7477 22.2916,22.5238424 22.2916,22.2477 L22.2916,18.1717 C22.2916,14.6168895 19.3850743,11.7107 15.8306,11.7107 C15.5544576,11.7107 15.3306,11.9345576 15.3306,12.2107 C15.3306,12.4868424 15.5544576,12.7107 15.8306,12.7107 Z" id="Stroke-7"></path>
            </g>
        </g>
    </g>
</svg>