<?xml version="1.0" encoding="UTF-8"?>
<svg width="22px" height="22px" viewBox="0 0 22 22" version="1.1" xmlns="http://www.w3.org/2000/svg" xmlns:xlink="http://www.w3.org/1999/xlink">
    <!-- Generator: Sketch 46.1 (44463) - http://www.bohemiancoding.com/sketch -->
    <title>icon/close X</title>
    <desc>Created with Sketch.</desc>
    <defs></defs>
    <g id="Symbols" stroke="none" stroke-width="1" fill="none" fill-rule="evenodd">
        <g id="icon/close-X">
            <g id="Page-1">
                <polygon id="Fill-1" points="0 22 22 22 22 0 0 0"></polygon>
                <g transform="translate(2.000000, 2.000000)" id="Fill-1" fill="#FFFFFF">
                    <path d="M10.21225,8.79725 L17.30325,1.70725 C17.69325,1.31625 17.69325,0.68325 17.30325,0.29325 C16.91225,-0.09775 16.27925,-0.09775 15.88925,0.29325 L8.79825,7.38325 L1.70725,0.29325 C1.31625,-0.09775 0.68425,-0.09775 0.29325,0.29325 C-0.09775,0.68325 -0.09775,1.31625 0.29325,1.70725 L7.38425,8.79725 L0.29325,15.88725 C-0.09775,16.27825 -0.09775,16.91125 0.29325,17.30125 C0.48825,17.49725 0.74425,17.59425 1.00025,17.59425 C1.25625,17.59425 1.51225,17.49725 1.70725,17.30125 L8.79825,10.21125 L15.88925,17.30125 C16.08425,17.49725 16.34025,17.59425 16.59625,17.59425 C16.85225,17.59425 17.10825,17.49725 17.30325,17.30125 C17.69325,16.91125 17.69325,16.27825 17.30325,15.88725 L10.21225,8.79725 Z"></path>
                </g>
            </g>
        </g>
    </g>
</svg>