<?xml version="1.0" encoding="UTF-8"?>
<svg width="95px" height="68px" viewBox="0 0 95 68" version="1.1" xmlns="http://www.w3.org/2000/svg" xmlns:xlink="http://www.w3.org/1999/xlink">
    <!-- Generator: Sketch 46.1 (44463) - http://www.bohemiancoding.com/sketch -->
    <title>home-email</title>
    <desc>Created with Sketch.</desc>
    <defs></defs>
    <g id="Proto---general" stroke="none" stroke-width="1" fill="none" fill-rule="evenodd">
        <g id="Home-main" transform="translate(-464.000000, -173.000000)">
            <g id="home-main-action-copy" transform="translate(355.500000, 129.000000)">
                <g id="home-email" transform="translate(109.000000, 44.000000)">
                    <path d="M82.4677,12.1294 L87.6147,12.1294 C90.5767,12.1294 92.9777,14.2644 92.9777,16.8994 L92.9777,48.6974 C92.9777,51.3314 90.5767,53.4674 87.6147,53.4674 L55.2147,53.4674 C52.2527,53.4674 49.8517,51.3314 49.8517,48.6974 L49.8517,16.8994 C49.8517,14.2644 52.2527,12.1294 55.2147,12.1294 L60.4207,12.1294 L82.4677,12.1294 Z" id="Fill-1" fill="#FFFFFF"></path>
                    <path d="M55.2147,13.1294 C52.7803672,13.1294 50.8517,14.8446817 50.8517,16.8994 L50.8517,48.6974 C50.8517,50.7514998 52.7807833,52.4674 55.2147,52.4674 L87.6147,52.4674 C90.0486167,52.4674 91.9777,50.7514998 91.9777,48.6974 L91.9777,16.8994 C91.9777,14.8446817 90.0490328,13.1294 87.6147,13.1294 L55.2147,13.1294 Z M87.6147,11.1294 C91.1047677,11.1294 93.9777,13.6844744 93.9777,16.8994 L93.9777,48.6974 C93.9777,51.9116348 91.1044071,54.4674 87.6147,54.4674 L55.2147,54.4674 C51.7249929,54.4674 48.8517,51.9116348 48.8517,48.6974 L48.8517,16.8994 C48.8517,13.6844744 51.7246323,11.1294 55.2147,11.1294 L87.6147,11.1294 Z" id="Stroke-3" fill="#2E47B4" fill-rule="nonzero"></path>
                    <path d="M78.5547,8.4421 L81.0287,8.4421 C82.3047,8.4421 83.3387,9.4761 83.3387,10.7521 L83.3387,15.6721 C83.3387,16.9471 82.3047,17.9821 81.0287,17.9821 L61.7997,17.9821 C60.5247,17.9821 59.4907,16.9471 59.4907,15.6721 L59.4907,10.7521 C59.4907,9.4761 60.5247,8.4421 61.7997,8.4421 L64.2747,8.4421 L64.2597,8.1041 C64.2597,4.1811 67.4407,1.0001 71.3647,1.0001 L71.4647,1.0001 C75.3887,1.0001 78.5697,4.1811 78.5697,8.1041 L78.5547,8.4421 Z" id="Fill-5" fill="#FFFFFF"></path>
                    <path d="M77.0186371,9.442 L77.0649833,8.39766494 L77.079,8.104 C77.079,4.73315189 74.3455824,2 70.974,2 L70.874,2 C67.5024176,2 64.769,4.73315189 64.7680167,8.05966494 L64.8293629,9.442 L61.309,9.442 C60.5861971,9.442 60,10.0283725 60,10.752 L60,15.672 C60,16.3950398 60.5866093,16.982 61.309,16.982 L80.538,16.982 C81.261303,16.982 81.848,16.3951276 81.848,15.672 L81.848,10.752 C81.848,10.0282847 81.2617153,9.442 80.538,9.442 L77.0186371,9.442 Z M80.538,7.442 C82.3662847,7.442 83.848,8.92371525 83.848,10.752 L83.848,15.672 C83.848,17.4995632 82.3660064,18.982 80.538,18.982 L61.309,18.982 C59.4817719,18.982 58,17.4993416 58,15.672 L58,10.752 C58,8.92393684 59.4814937,7.442 61.309,7.442 L62.7956567,7.442 C63.1325448,3.27612962 66.6208055,0 70.874,0 L70.974,0 C75.2143587,7.10542736e-15 78.6943937,3.25638529 79.0483712,7.442 L80.538,7.442 Z" id="Stroke-7" fill="#2E47B4" fill-rule="nonzero"></path>
                    <path d="M77.268,66.8281 L28.554,66.8281 C26.244,66.8281 24.372,64.9551 24.372,62.6451 L24.372,29.5601 C24.372,28.4051 24.84,27.3591 25.597,26.6021 C26.354,25.8451 27.399,25.3771 28.554,25.3771 L77.268,25.3771 C79.578,25.3771 81.45,27.2501 81.45,29.5601 L81.45,62.6451 C81.45,64.9551 79.578,66.8281 77.268,66.8281" id="Fill-9" fill="#DCF8FF"></path>
                    <path d="M77.268,65.8281 C79.0254506,65.8281 80.45,64.40308 80.45,62.6451 L80.45,29.5601 C80.45,27.80212 79.0254506,26.3771 77.268,26.3771 L28.554,26.3771 C27.6976072,26.3771 26.8979116,26.715402 26.3041068,27.3092068 C25.7105291,27.9027844 25.372,28.7034168 25.372,29.5601 L25.372,62.6451 C25.372,64.40308 26.7965494,65.8281 28.554,65.8281 L77.268,65.8281 Z M77.268,67.8281 L28.554,67.8281 C25.691832,67.8281 23.372,65.5075016 23.372,62.6451 L23.372,29.5601 C23.372,28.1676184 23.924904,26.8599824 24.8898932,25.8949932 C25.8550218,24.9298647 27.1616752,24.3771 28.554,24.3771 L77.268,24.3771 C80.130168,24.3771 82.45,26.6976984 82.45,29.5601 L82.45,62.6451 C82.45,65.5075016 80.130168,67.8281 77.268,67.8281 Z" id="Stroke-11" fill="#05BDFF" fill-rule="nonzero"></path>
                    <path d="M73.7996,8.3025 C73.7996,9.6195 72.7316,10.6875 71.4146,10.6875 C70.0976,10.6875 69.0296,9.6195 69.0296,8.3025 C69.0296,6.9855 70.0976,5.9175 71.4146,5.9175 C72.7316,5.9175 73.7996,6.9855 73.7996,8.3025" id="Fill-13" fill="#2E47B4"></path>
                    <polygon id="Stroke-15" fill="#05BDFF" fill-rule="nonzero" points="26.561483 25.9368641 25.284517 27.4761359 52.9070784 50.3915623 80.7358139 27.5879856 79.4681861 26.0410144 52.9149216 47.7994377"></polygon>
                    <path d="M1,38.5689 L24,38.5689" id="Fill-17" fill="#FFFFFF"></path>
                    <path d="M1,39.5689 L24,39.5689 C24.5522847,39.5689 25,39.1211847 25,38.5689 C25,38.0166153 24.5522847,37.5689 24,37.5689 L1,37.5689 C0.44771525,37.5689 0,38.0166153 0,38.5689 C0,39.1211847 0.44771525,39.5689 1,39.5689 Z" id="Stroke-19" fill="#05BDFF" fill-rule="nonzero"></path>
                    <path d="M6,47.5689 L24,47.5689" id="Fill-21" fill="#FFFFFF"></path>
                    <path d="M6,48.5689 L24,48.5689 C24.5522847,48.5689 25,48.1211847 25,47.5689 C25,47.0166153 24.5522847,46.5689 24,46.5689 L6,46.5689 C5.44771525,46.5689 5,47.0166153 5,47.5689 C5,48.1211847 5.44771525,48.5689 6,48.5689 Z" id="Stroke-23" fill="#05BDFF" fill-rule="nonzero"></path>
                    <path d="M12,56.5689 L24,56.5689" id="Fill-25" fill="#FFFFFF"></path>
                    <path d="M12,57.5689 L24,57.5689 C24.5522847,57.5689 25,57.1211847 25,56.5689 C25,56.0166153 24.5522847,55.5689 24,55.5689 L12,55.5689 C11.4477153,55.5689 11,56.0166153 11,56.5689 C11,57.1211847 11.4477153,57.5689 12,57.5689 Z" id="Stroke-27" fill="#05BDFF" fill-rule="nonzero"></path>
                </g>
            </g>
        </g>
    </g>
</svg>